…
#### `.predictions`

Testing data predictions are listed here.

``` r
rf$.predictions[[1]]
```

    ## # A tibble: 5,589 × 6
    ##    class    .pred_class .pred_presence .pred_background  .row .config        
    ##    <fct>    <fct>                <dbl>            <dbl> <int> <chr>          
    ##  1 presence background          0.233             0.767     7 pre0_mod0_post0
    ##  2 presence background          0.249             0.751    16 pre0_mod0_post0
    ##  3 presence background          0.213             0.787    22 pre0_mod0_post0
    ##  4 presence background          0.251             0.749    23 pre0_mod0_post0
    ##  5 presence background          0.276             0.724    31 pre0_mod0_post0
    ##  6 presence background          0.256             0.744    33 pre0_mod0_post0
    ##  7 presence background          0.204             0.796    36 pre0_mod0_post0
    ##  8 presence background          0.0424            0.958    39 pre0_mod0_post0
    ##  9 presence background          0.251             0.749    40 pre0_mod0_post0
    ## 10 presence background          0.188             0.812    44 pre0_mod0_post0
    ## # ℹ 5,579 more rows
…
